<svg width="25" height="25" viewBox="0 0 25 25" fill="none" xmlns="http://www.w3.org/2000/svg">
<path fill-rule="evenodd" clip-rule="evenodd" d="M12.4832 0.0802348C6.51247 0.0807102 1.38702 4.32976 0.279842 10.197C-0.827334 16.0642 2.39714 21.8889 7.95711 24.0653C7.8489 23.0821 7.75189 21.5765 8.00002 20.5019C8.22577 19.5336 9.45711 14.3302 9.45711 14.3302C9.45711 14.3302 9.08398 13.584 9.08398 12.4851C9.08398 10.7575 10.0858 9.46829 11.3321 9.46829C12.3918 9.46829 12.9049 10.2649 12.9049 11.2183C12.9049 12.2836 12.2258 13.8769 11.875 15.3545C11.584 16.5896 12.4963 17.5989 13.7146 17.5989C15.9217 17.5989 17.6194 15.2705 17.6194 11.9105C17.6194 8.93658 15.4832 6.85822 12.4329 6.85822C8.89741 6.85822 6.82278 9.50747 6.82278 12.2481C6.82278 13.3153 7.23323 14.459 7.74816 15.0821C7.8489 15.2052 7.86383 15.3134 7.83398 15.4366C7.74069 15.8302 7.52987 16.6735 7.48883 16.847C7.43286 17.0746 7.30786 17.1231 7.07278 17.0131C5.52241 16.2911 4.55226 14.0224 4.55226 12.1996C4.55226 8.28173 7.39928 4.68471 12.7594 4.68471C17.0672 4.68471 20.4161 7.75561 20.4161 11.8582C20.4161 16.1381 17.7164 19.584 13.9702 19.584C12.7127 19.584 11.528 18.931 11.1232 18.1586C11.1232 18.1586 10.5 20.528 10.3508 21.1101C10.0709 22.1884 9.31346 23.5411 8.80599 24.3657C13.4701 25.805 18.5448 24.3789 21.7764 20.7206C25.0079 17.0624 25.7971 11.8505 23.7933 7.39961C21.7895 2.94873 17.3644 0.0842542 12.4832 0.0783691" fill="#9BA9BB"/>
</svg>
